Rice Rivers Center Tree Inventory
…
Amount of Carbon Stored by Species

rrc_ti |>
   mutate( `Common Name` = Common_name) |>
  group_by( `Common Name` ) |>
  summarize( `Avg Carbon Stored (Kg)` = mean( Carbon_Stored ),
             `Total Carbon Stored (Kg)` = sum( Carbon_Stored)) |>
  arrange( - `Avg Carbon Stored (Kg)`,
           - `Total Carbon Stored (Kg)`)

# A tibble: 36 × 3
   `Common Name`    `Avg Carbon Stored (Kg)` `Total Carbon Stored (Kg)`
   <chr>                               <dbl>                      <dbl>
 1 Willow Oak                          1741.                    116661.
 2 Cherrybark Oak                       882.                     65284.
 3 Loblolly Pine                        562.                    234927.
 4 Southern Red Oak                     532.                    199381.
 5 Scarlet Oak                          507.                      2535.
 6 Yellow Poplar                        384.                     39546.
 7 White Oak                            378.                     50243.
 8 Virginia Pine                        343.                       343.
 9 Post Oak                             255.                      6897.
10 Black Oak                            243.                      8992.
# ℹ 26 more rows

DBH by Species

rrc_ti |>
  mutate( `Common Name` = Common_name) |>
  group_by( `Common Name`) |>
  summarize( `Avg DBH (cm)` = mean( DBH ),
             `Max DBH (cm)` = max( DBH )) |>
  arrange( - `Avg DBH (cm)`,
           - `Max DBH (cm)`)

# A tibble: 36 × 3
   `Common Name`    `Avg DBH (cm)` `Max DBH (cm)`
   <chr>                     <dbl>          <dbl>
 1 Willow Oak                 59.3          122  
 2 Loblolly Pine              49.1           81.7
 3 Cherrybark Oak             42.6          102. 
 4 Virginia Pine              41.4           41.4
 5 Scarlet Oak                37.4           52  
 6 Yellow Poplar              34.3           81.5
 7 American Elm               32.5           32.5
 8 Southern Red Oak           32.0          122. 
 9 Sweetgum                   28.6           79  
10 Snag                       25.2          104. 
# ℹ 26 more rows
…
